b_tree_16,100,100,zipf,4120.100942
adaptive_b_tree_16,100,100,zipf,4859.381644
external_ist,100,100,zipf,1689.938528
internal_ist,100,100,zipf,1478.907088
adaptive_ist,100,100,zipf,2479.620618

b_tree_16,99,1,random,3115.750117
adaptive_b_tree_16,99,1,random,6727.777311
external_ist,99,1,random,1277.445110
internal_ist,99,1,random,1131.958004
adaptive_ist,99,1,random,2808.002808

b_tree_16,95,5,random,2988.419873
adaptive_b_tree_16,95,5,random,3075.148953
external_ist,95,5,random,1215.823949
internal_ist,95,5,random,1089.888559
adaptive_ist,95,5,random,2135.896409

b_tree_16,90,10,random,3009.442125
adaptive_b_tree_16,90,10,random,2771.522605
external_ist,90,10,random,1234.072749
internal_ist,90,10,random,1055.325436
adaptive_ist,90,10,random,1922.014271

b_tree_16,50,50,random,2937.936100
adaptive_b_tree_16,50,50,random,1999.850011
external_ist,50,50,random,1037.613489
internal_ist,50,50,random,889.778668
adaptive_ist,50,50,random,976.347970
